// Jest Snapshot v1, https://goo.gl/fbAQLP

exports[`SavePreview should render correctly 1`] = `
<div>
  <Grid
    container={true}
    originalComponent="Grid"
    spacing={16}
  >
    <Grid
      item={true}
      originalComponent="Grid"
      xs={6}
    >
      <Field
        component={[Function]}
        floatingLabelText="Deal Name"
        fullWidth={true}
        name="dealName"
        originalComponent="Field"
        readOnly={true}
      />
    </Grid>
    <Grid
      item={true}
      originalComponent="Grid"
      xs={6}
    >
      <Field
        component={[Function]}
        floatingLabelText="Legal Entity"
        fullWidth={true}
        name="legalEntity.code"
        originalComponent="Field"
        readOnly={true}
      />
    </Grid>
    <Grid
      item={true}
      originalComponent="Grid"
      xs={6}
    >
      <Field
        component={[Function]}
        floatingLabelText="Previous Deal Notes"
        fullWidth={true}
        name="dealNotes"
        originalComponent="Field"
        readOnly={true}
      />
    </Grid>
    <Grid
      item={true}
      originalComponent="Grid"
      xs={6}
    >
      <Field
        component={[Function]}
        floatingLabelText="Please insert current deal notes"
        fullWidth={true}
        name="newDealNotes"
        originalComponent="Field"
        required={true}
      />
    </Grid>
  </Grid>
  <Button
    onClick={[Function]}
    originalComponent="Button"
  >
    Reset
  </Button>
  <Button
    className="undefined save-button"
    color="primary"
    disabled={true}
    onClick={[MockFunction]}
    originalComponent="Button"
    variant="contained"
  >
    SAVE
  </Button>
  <Paper
    originalComponent="Paper"
  >
    <Table
      originalComponent="Table"
    >
      <TableHead
        originalComponent="TableHead"
      >
        <TableRow
          originalComponent="TableRow"
        >
          <TableCell
            component="th"
            originalComponent="TableCell"
            scope="row"
          >
            Item
          </TableCell>
          <TableCell
            component="th"
            originalComponent="TableCell"
            scope="row"
          >
            LE_AME
             Version 
            2
          </TableCell>
          <TableCell
            component="th"
            originalComponent="TableCell"
            scope="row"
          >
            LE_AME
             Ready to save version 
            3
          </TableCell>
        </TableRow>
      </TableHead>
      <TableBody
        originalComponent="TableBody"
      />
    </Table>
  </Paper>
</div>
`;
